[gd_scene load_steps=6 format=3 uid="uid://b3vh7ad4rvgiy"]

[ext_resource type="Script" path="res://Battle/DamageLabel.gd" id="1_xvjto"]

[sub_resource type="FontVariation" id="FontVariation_j31sg"]
variation_embolden = 1.14

[sub_resource type="LabelSettings" id="LabelSettings_1wmgk"]
font = SubResource("FontVariation_j31sg")
font_size = 40
shadow_size = 15
shadow_color = Color(0, 0, 0, 1)
shadow_offset = Vector2(2, 2)

[sub_resource type="Animation" id="Animation_yvvqg"]
resource_name = "damage_bounce"
tracks/0/type = "value"
tracks/0/imported = false
tracks/0/enabled = true
tracks/0/path = NodePath(".:position")
tracks/0/interp = 1
tracks/0/loop_wrap = true
tracks/0/keys = {
"times": PackedFloat32Array(0, 0.15, 0.5),
"transitions": PackedFloat32Array(0.450625, 0.707107, 2.21914),
"update": 0,
"values": [Vector2(0, 0), Vector2(0, -30), Vector2(0, 0)]
}
tracks/1/type = "value"
tracks/1/imported = false
tracks/1/enabled = true
tracks/1/path = NodePath("Label:modulate")
tracks/1/interp = 1
tracks/1/loop_wrap = true
tracks/1/keys = {
"times": PackedFloat32Array(0.0001, 0.0002, 0.05, 0.6, 1),
"transitions": PackedFloat32Array(1, 1, 1, 1, 1),
"update": 0,
"values": [Color(1, 1, 1, 1), Color(1, 1, 1, 0), Color(1, 1, 1, 1), Color(1, 1, 1, 1), Color(1, 1, 1, 0)]
}

[sub_resource type="AnimationLibrary" id="AnimationLibrary_inh38"]
_data = {
"damage_bounce": SubResource("Animation_yvvqg")
}

[node name="DamageLabel" type="Node2D"]
script = ExtResource("1_xvjto")

[node name="Label" type="Label" parent="."]
anchors_preset = 8
anchor_left = 0.5
anchor_top = 0.5
anchor_right = 0.5
anchor_bottom = 0.5
offset_left = -23.0
offset_top = -29.0
offset_right = 23.0
offset_bottom = 29.0
grow_horizontal = 2
grow_vertical = 2
size_flags_horizontal = 6
text = "32"
label_settings = SubResource("LabelSettings_1wmgk")

[node name="Timer" type="Timer" parent="."]

[node name="AnimationPlayer" type="AnimationPlayer" parent="."]
libraries = {
"": SubResource("AnimationLibrary_inh38")
}

[connection signal="timeout" from="Timer" to="." method="_on_timer_timeout"]
