[gd_scene load_steps=4 format=3 uid="uid://6urur3ewh2gs"]

[ext_resource type="Script" path="res://Battle/LetterCell.gd" id="1_kevg2"]

[sub_resource type="LabelSettings" id="LabelSettings_y5u5v"]
font_size = 90

[sub_resource type="LabelSettings" id="LabelSettings_fecr0"]
font_size = 25

[node name="Control" type="Button"]
anchors_preset = 15
anchor_right = 1.0
anchor_bottom = 1.0
grow_horizontal = 2
grow_vertical = 2
size_flags_horizontal = 3
size_flags_vertical = 3
script = ExtResource("1_kevg2")

[node name="LetterLabel" type="Label" parent="."]
layout_mode = 1
anchors_preset = 15
anchor_right = 1.0
anchor_bottom = 1.0
grow_horizontal = 2
grow_vertical = 2
text = "S"
label_settings = SubResource("LabelSettings_y5u5v")
horizontal_alignment = 1
vertical_alignment = 1

[node name="Control" type="Control" parent="."]
layout_mode = 1
anchors_preset = 1
anchor_left = 1.0
anchor_right = 1.0
offset_left = -40.0
offset_bottom = 40.0
grow_horizontal = 0

[node name="MarginContainer" type="MarginContainer" parent="Control"]
layout_mode = 1
anchors_preset = 1
anchor_left = 1.0
anchor_right = 1.0
offset_left = -49.0
offset_bottom = 127.0
grow_horizontal = 0
theme_override_constants/margin_left = 8
theme_override_constants/margin_right = 8
theme_override_constants/margin_bottom = 8

[node name="ScoreLabel" type="Label" parent="Control/MarginContainer"]
unique_name_in_owner = true
layout_mode = 2
size_flags_vertical = 1
text = "3"
label_settings = SubResource("LabelSettings_fecr0")
horizontal_alignment = 2

[connection signal="pressed" from="." to="." method="_on_pressed"]
